(['/Users/j/Desktop/projects/sokoban_1/main.py'],
 ['/Users/j/Desktop/projects/sokoban_1', '/Users/j/Desktop/projects/sokoban_1'],
 ['codecs'],
 ['/Users/j/.local/share/virtualenvs/sokoban_joanna_2021-mic4QEav/lib/python3.9/site-packages/_pyinstaller_hooks_contrib/hooks/stdhooks',
  '/Users/j/.local/share/virtualenvs/sokoban_joanna_2021-mic4QEav/lib/python3.9/site-packages/_pyinstaller_hooks_contrib/hooks/stdhooks/__pycache__',
  '/Users/j/.local/share/virtualenvs/sokoban_joanna_2021-mic4QEav/lib/python3.9/site-packages/_pyinstaller_hooks_contrib/hooks/rthooks',
  '/Users/j/.local/share/virtualenvs/sokoban_joanna_2021-mic4QEav/lib/python3.9/site-packages/_pyinstaller_hooks_contrib/hooks/rthooks/__pycache__',
  '/Users/j/.local/share/virtualenvs/sokoban_joanna_2021-mic4QEav/lib/python3.9/site-packages/_pyinstaller_hooks_contrib/hooks',
  '/Users/j/.local/share/virtualenvs/sokoban_joanna_2021-mic4QEav/lib/python3.9/site-packages/pygame/__pyinstaller'],
 {},
 [],
 [],
 False,
 False,
 False,
 '3.9.5 (default, Jul 27 2021, 12:00:20) \n[Clang 12.0.5 (clang-1205.0.22.11)]',
 [('pyi_rth_pkgutil',
   '/Users/j/.local/share/virtualenvs/sokoban_joanna_2021-mic4QEav/lib/python3.9/site-packages/PyInstaller/hooks/rthooks/pyi_rth_pkgutil.py',
   'PYSOURCE'),
  ('pyi_rth_multiprocessing',
   '/Users/j/.local/share/virtualenvs/sokoban_joanna_2021-mic4QEav/lib/python3.9/site-packages/PyInstaller/hooks/rthooks/pyi_rth_multiprocessing.py',
   'PYSOURCE'),
  ('pyi_rth_inspect',
   '/Users/j/.local/share/virtualenvs/sokoban_joanna_2021-mic4QEav/lib/python3.9/site-packages/PyInstaller/hooks/rthooks/pyi_rth_inspect.py',
   'PYSOURCE'),
  ('pyi_rth_pkgres',
   '/Users/j/.local/share/virtualenvs/sokoban_joanna_2021-mic4QEav/lib/python3.9/site-packages/PyInstaller/hooks/rthooks/pyi_rth_pkgres.py',
   'PYSOURCE'),
  ('main', '/Users/j/Desktop/projects/sokoban_1/main.py', 'PYSOURCE')],
 [('pkg_resources',
   '/Users/j/.local/share/virtualenvs/sokoban_joanna_2021-mic4QEav/lib/python3.9/site-packages/pkg_resources/__init__.py',
   'PYMODULE'),
  ('packaging.markers',
   '/Users/j/.local/share/virtualenvs/sokoban_joanna_2021-mic4QEav/lib/python3.9/site-packages/packaging/markers.py',
   'PYMODULE'),
  ('pyparsing',
   '/Users/j/.local/share/virtualenvs/sokoban_joanna_2021-mic4QEav/lib/python3.9/site-packages/pyparsing/__init__.py',
   'PYMODULE'),
  ('pyparsing.common',
   '/Users/j/.local/share/virtualenvs/sokoban_joanna_2021-mic4QEav/lib/python3.9/site-packages/pyparsing/common.py',
   'PYMODULE'),
  ('datetime',
   '/Users/j/.pyenv/versions/3.9.5/lib/python3.9/datetime.py',
   'PYMODULE'),
  ('_strptime',
   '/Users/j/.pyenv/versions/3.9.5/lib/python3.9/_strptime.py',
   'PYMODULE'),
  ('calendar',
   '/Users/j/.pyenv/versions/3.9.5/lib/python3.9/calendar.py',
   'PYMODULE'),
  ('argparse',
   '/Users/j/.pyenv/versions/3.9.5/lib/python3.9/argparse.py',
   'PYMODULE'),
  ('shutil',
   '/Users/j/.pyenv/versions/3.9.5/lib/python3.9/shutil.py',
   'PYMODULE'),
  ('tarfile',
   '/Users/j/.pyenv/versions/3.9.5/lib/python3.9/tarfile.py',
   'PYMODULE'),
  ('gzip', '/Users/j/.pyenv/versions/3.9.5/lib/python3.9/gzip.py', 'PYMODULE'),
  ('_compression',
   '/Users/j/.pyenv/versions/3.9.5/lib/python3.9/_compression.py',
   'PYMODULE'),
  ('struct',
   '/Users/j/.pyenv/versions/3.9.5/lib/python3.9/struct.py',
   'PYMODULE'),
  ('lzma', '/Users/j/.pyenv/versions/3.9.5/lib/python3.9/lzma.py', 'PYMODULE'),
  ('bz2', '/Users/j/.pyenv/versions/3.9.5/lib/python3.9/bz2.py', 'PYMODULE'),
  ('threading',
   '/Users/j/.pyenv/versions/3.9.5/lib/python3.9/threading.py',
   'PYMODULE'),
  ('_threading_local',
   '/Users/j/.pyenv/versions/3.9.5/lib/python3.9/_threading_local.py',
   'PYMODULE'),
  ('contextlib',
   '/Users/j/.pyenv/versions/3.9.5/lib/python3.9/contextlib.py',
   'PYMODULE'),
  ('fnmatch',
   '/Users/j/.pyenv/versions/3.9.5/lib/python3.9/fnmatch.py',
   'PYMODULE'),
  ('copy', '/Users/j/.pyenv/versions/3.9.5/lib/python3.9/copy.py', 'PYMODULE'),
  ('gettext',
   '/Users/j/.pyenv/versions/3.9.5/lib/python3.9/gettext.py',
   'PYMODULE'),
  ('pyparsing.testing',
   '/Users/j/.local/share/virtualenvs/sokoban_joanna_2021-mic4QEav/lib/python3.9/site-packages/pyparsing/testing.py',
   'PYMODULE'),
  ('pyparsing.unicode',
   '/Users/j/.local/share/virtualenvs/sokoban_joanna_2021-mic4QEav/lib/python3.9/site-packages/pyparsing/unicode.py',
   'PYMODULE'),
  ('pyparsing.helpers',
   '/Users/j/.local/share/virtualenvs/sokoban_joanna_2021-mic4QEav/lib/python3.9/site-packages/pyparsing/helpers.py',
   'PYMODULE'),
  ('html.entities',
   '/Users/j/.pyenv/versions/3.9.5/lib/python3.9/html/entities.py',
   'PYMODULE'),
  ('html',
   '/Users/j/.pyenv/versions/3.9.5/lib/python3.9/html/__init__.py',
   'PYMODULE'),
  ('pyparsing.results',
   '/Users/j/.local/share/virtualenvs/sokoban_joanna_2021-mic4QEav/lib/python3.9/site-packages/pyparsing/results.py',
   'PYMODULE'),
  ('pprint',
   '/Users/j/.pyenv/versions/3.9.5/lib/python3.9/pprint.py',
   'PYMODULE'),
  ('pyparsing.core',
   '/Users/j/.local/share/virtualenvs/sokoban_joanna_2021-mic4QEav/lib/python3.9/site-packages/pyparsing/core.py',
   'PYMODULE'),
  ('pyparsing.diagram',
   '/Users/j/.local/share/virtualenvs/sokoban_joanna_2021-mic4QEav/lib/python3.9/site-packages/pyparsing/diagram/__init__.py',
   'PYMODULE'),
  ('pdb', '/Users/j/.pyenv/versions/3.9.5/lib/python3.9/pdb.py', 'PYMODULE'),
  ('getopt',
   '/Users/j/.pyenv/versions/3.9.5/lib/python3.9/getopt.py',
   'PYMODULE'),
  ('pydoc',
   '/Users/j/.pyenv/versions/3.9.5/lib/python3.9/pydoc.py',
   'PYMODULE'),
  ('webbrowser',
   '/Users/j/.pyenv/versions/3.9.5/lib/python3.9/webbrowser.py',
   'PYMODULE'),
  ('socket',
   '/Users/j/.pyenv/versions/3.9.5/lib/python3.9/socket.py',
   'PYMODULE'),
  ('selectors',
   '/Users/j/.pyenv/versions/3.9.5/lib/python3.9/selectors.py',
   'PYMODULE'),
  ('email.message',
   '/Users/j/.pyenv/versions/3.9.5/lib/python3.9/email/message.py',
   'PYMODULE'),
  ('email.policy',
   '/Users/j/.pyenv/versions/3.9.5/lib/python3.9/email/policy.py',
   'PYMODULE'),
  ('email.contentmanager',
   '/Users/j/.pyenv/versions/3.9.5/lib/python3.9/email/contentmanager.py',
   'PYMODULE'),
  ('email.quoprimime',
   '/Users/j/.pyenv/versions/3.9.5/lib/python3.9/email/quoprimime.py',
   'PYMODULE'),
  ('email.headerregistry',
   '/Users/j/.pyenv/versions/3.9.5/lib/python3.9/email/headerregistry.py',
   'PYMODULE'),
  ('email._header_value_parser',
   '/Users/j/.pyenv/versions/3.9.5/lib/python3.9/email/_header_value_parser.py',
   'PYMODULE'),
  ('urllib',
   '/Users/j/.pyenv/versions/3.9.5/lib/python3.9/urllib/__init__.py',
   'PYMODULE'),
  ('email.iterators',
   '/Users/j/.pyenv/versions/3.9.5/lib/python3.9/email/iterators.py',
   'PYMODULE'),
  ('email.generator',
   '/Users/j/.pyenv/versions/3.9.5/lib/python3.9/email/generator.py',
   'PYMODULE'),
  ('random',
   '/Users/j/.pyenv/versions/3.9.5/lib/python3.9/random.py',
   'PYMODULE'),
  ('statistics',
   '/Users/j/.pyenv/versions/3.9.5/lib/python3.9/statistics.py',
   'PYMODULE'),
  ('decimal',
   '/Users/j/.pyenv/versions/3.9.5/lib/python3.9/decimal.py',
   'PYMODULE'),
  ('_pydecimal',
   '/Users/j/.pyenv/versions/3.9.5/lib/python3.9/_pydecimal.py',
   'PYMODULE'),
  ('contextvars',
   '/Users/j/.pyenv/versions/3.9.5/lib/python3.9/contextvars.py',
   'PYMODULE'),
  ('fractions',
   '/Users/j/.pyenv/versions/3.9.5/lib/python3.9/fractions.py',
   'PYMODULE'),
  ('numbers',
   '/Users/j/.pyenv/versions/3.9.5/lib/python3.9/numbers.py',
   'PYMODULE'),
  ('hashlib',
   '/Users/j/.pyenv/versions/3.9.5/lib/python3.9/hashlib.py',
   'PYMODULE'),
  ('logging',
   '/Users/j/.pyenv/versions/3.9.5/lib/python3.9/logging/__init__.py',
   'PYMODULE'),
  ('pickle',
   '/Users/j/.pyenv/versions/3.9.5/lib/python3.9/pickle.py',
   'PYMODULE'),
  ('doctest',
   '/Users/j/.pyenv/versions/3.9.5/lib/python3.9/doctest.py',
   'PYMODULE'),
  ('unittest',
   '/Users/j/.pyenv/versions/3.9.5/lib/python3.9/unittest/__init__.py',
   'PYMODULE'),
  ('unittest.async_case',
   '/Users/j/.pyenv/versions/3.9.5/lib/python3.9/unittest/async_case.py',
   'PYMODULE'),
  ('asyncio',
   '/Users/j/.pyenv/versions/3.9.5/lib/python3.9/asyncio/__init__.py',
   'PYMODULE'),
  ('asyncio.unix_events',
   '/Users/j/.pyenv/versions/3.9.5/lib/python3.9/asyncio/unix_events.py',
   'PYMODULE'),
  ('asyncio.log',
   '/Users/j/.pyenv/versions/3.9.5/lib/python3.9/asyncio/log.py',
   'PYMODULE'),
  ('asyncio.windows_events',
   '/Users/j/.pyenv/versions/3.9.5/lib/python3.9/asyncio/windows_events.py',
   'PYMODULE'),
  ('asyncio.windows_utils',
   '/Users/j/.pyenv/versions/3.9.5/lib/python3.9/asyncio/windows_utils.py',
   'PYMODULE'),
  ('asyncio.selector_events',
   '/Users/j/.pyenv/versions/3.9.5/lib/python3.9/asyncio/selector_events.py',
   'PYMODULE'),
  ('ssl', '/Users/j/.pyenv/versions/3.9.5/lib/python3.9/ssl.py', 'PYMODULE'),
  ('base64',
   '/Users/j/.pyenv/versions/3.9.5/lib/python3.9/base64.py',
   'PYMODULE'),
  ('asyncio.proactor_events',
   '/Users/j/.pyenv/versions/3.9.5/lib/python3.9/asyncio/proactor_events.py',
   'PYMODULE'),
  ('asyncio.base_subprocess',
   '/Users/j/.pyenv/versions/3.9.5/lib/python3.9/asyncio/base_subprocess.py',
   'PYMODULE'),
  ('asyncio.threads',
   '/Users/j/.pyenv/versions/3.9.5/lib/python3.9/asyncio/threads.py',
   'PYMODULE'),
  ('asyncio.subprocess',
   '/Users/j/.pyenv/versions/3.9.5/lib/python3.9/asyncio/subprocess.py',
   'PYMODULE'),
  ('asyncio.streams',
   '/Users/j/.pyenv/versions/3.9.5/lib/python3.9/asyncio/streams.py',
   'PYMODULE'),
  ('asyncio.queues',
   '/Users/j/.pyenv/versions/3.9.5/lib/python3.9/asyncio/queues.py',
   'PYMODULE'),
  ('asyncio.runners',
   '/Users/j/.pyenv/versions/3.9.5/lib/python3.9/asyncio/runners.py',
   'PYMODULE'),
  ('asyncio.events',
   '/Users/j/.pyenv/versions/3.9.5/lib/python3.9/asyncio/events.py',
   'PYMODULE'),
  ('asyncio.base_events',
   '/Users/j/.pyenv/versions/3.9.5/lib/python3.9/asyncio/base_events.py',
   'PYMODULE'),
  ('concurrent.futures',
   '/Users/j/.pyenv/versions/3.9.5/lib/python3.9/concurrent/futures/__init__.py',
   'PYMODULE'),
  ('concurrent.futures.thread',
   '/Users/j/.pyenv/versions/3.9.5/lib/python3.9/concurrent/futures/thread.py',
   'PYMODULE'),
  ('queue',
   '/Users/j/.pyenv/versions/3.9.5/lib/python3.9/queue.py',
   'PYMODULE'),
  ('concurrent.futures.process',
   '/Users/j/.pyenv/versions/3.9.5/lib/python3.9/concurrent/futures/process.py',
   'PYMODULE'),
  ('multiprocessing.queues',
   '/Users/j/.pyenv/versions/3.9.5/lib/python3.9/multiprocessing/queues.py',
   'PYMODULE'),
  ('multiprocessing.synchronize',
   '/Users/j/.pyenv/versions/3.9.5/lib/python3.9/multiprocessing/synchronize.py',
   'PYMODULE'),
  ('multiprocessing.heap',
   '/Users/j/.pyenv/versions/3.9.5/lib/python3.9/multiprocessing/heap.py',
   'PYMODULE'),
  ('multiprocessing.resource_tracker',
   '/Users/j/.pyenv/versions/3.9.5/lib/python3.9/multiprocessing/resource_tracker.py',
   'PYMODULE'),
  ('multiprocessing.spawn',
   '/Users/j/.pyenv/versions/3.9.5/lib/python3.9/multiprocessing/spawn.py',
   'PYMODULE'),
  ('multiprocessing.process',
   '/Users/j/.pyenv/versions/3.9.5/lib/python3.9/multiprocessing/process.py',
   'PYMODULE'),
  ('multiprocessing.util',
   '/Users/j/.pyenv/versions/3.9.5/lib/python3.9/multiprocessing/util.py',
   'PYMODULE'),
  ('multiprocessing.forkserver',
   '/Users/j/.pyenv/versions/3.9.5/lib/python3.9/multiprocessing/forkserver.py',
   'PYMODULE'),
  ('multiprocessing.context',
   '/Users/j/.pyenv/versions/3.9.5/lib/python3.9/multiprocessing/context.py',
   'PYMODULE'),
  ('multiprocessing.popen_spawn_win32',
   '/Users/j/.pyenv/versions/3.9.5/lib/python3.9/multiprocessing/popen_spawn_win32.py',
   'PYMODULE'),
  ('multiprocessing.popen_forkserver',
   '/Users/j/.pyenv/versions/3.9.5/lib/python3.9/multiprocessing/popen_forkserver.py',
   'PYMODULE'),
  ('multiprocessing.popen_spawn_posix',
   '/Users/j/.pyenv/versions/3.9.5/lib/python3.9/multiprocessing/popen_spawn_posix.py',
   'PYMODULE'),
  ('multiprocessing.popen_fork',
   '/Users/j/.pyenv/versions/3.9.5/lib/python3.9/multiprocessing/popen_fork.py',
   'PYMODULE'),
  ('multiprocessing.sharedctypes',
   '/Users/j/.pyenv/versions/3.9.5/lib/python3.9/multiprocessing/sharedctypes.py',
   'PYMODULE'),
  ('ctypes',
   '/Users/j/.pyenv/versions/3.9.5/lib/python3.9/ctypes/__init__.py',
   'PYMODULE'),
  ('ctypes._endian',
   '/Users/j/.pyenv/versions/3.9.5/lib/python3.9/ctypes/_endian.py',
   'PYMODULE'),
  ('multiprocessing.pool',
   '/Users/j/.pyenv/versions/3.9.5/lib/python3.9/multiprocessing/pool.py',
   'PYMODULE'),
  ('multiprocessing.dummy',
   '/Users/j/.pyenv/versions/3.9.5/lib/python3.9/multiprocessing/dummy/__init__.py',
   'PYMODULE'),
  ('multiprocessing.dummy.connection',
   '/Users/j/.pyenv/versions/3.9.5/lib/python3.9/multiprocessing/dummy/connection.py',
   'PYMODULE'),
  ('multiprocessing.managers',
   '/Users/j/.pyenv/versions/3.9.5/lib/python3.9/multiprocessing/managers.py',
   'PYMODULE'),
  ('multiprocessing.shared_memory',
   '/Users/j/.pyenv/versions/3.9.5/lib/python3.9/multiprocessing/shared_memory.py',
   'PYMODULE'),
  ('secrets',
   '/Users/j/.pyenv/versions/3.9.5/lib/python3.9/secrets.py',
   'PYMODULE'),
  ('hmac', '/Users/j/.pyenv/versions/3.9.5/lib/python3.9/hmac.py', 'PYMODULE'),
  ('multiprocessing.reduction',
   '/Users/j/.pyenv/versions/3.9.5/lib/python3.9/multiprocessing/reduction.py',
   'PYMODULE'),
  ('multiprocessing.resource_sharer',
   '/Users/j/.pyenv/versions/3.9.5/lib/python3.9/multiprocessing/resource_sharer.py',
   'PYMODULE'),
  ('multiprocessing.connection',
   '/Users/j/.pyenv/versions/3.9.5/lib/python3.9/multiprocessing/connection.py',
   'PYMODULE'),
  ('xmlrpc.client',
   '/Users/j/.pyenv/versions/3.9.5/lib/python3.9/xmlrpc/client.py',
   'PYMODULE'),
  ('xmlrpc',
   '/Users/j/.pyenv/versions/3.9.5/lib/python3.9/xmlrpc/__init__.py',
   'PYMODULE'),
  ('xml.parsers.expat',
   '/Users/j/.pyenv/versions/3.9.5/lib/python3.9/xml/parsers/expat.py',
   'PYMODULE'),
  ('xml.parsers',
   '/Users/j/.pyenv/versions/3.9.5/lib/python3.9/xml/parsers/__init__.py',
   'PYMODULE'),
  ('xml',
   '/Users/j/.pyenv/versions/3.9.5/lib/python3.9/xml/__init__.py',
   'PYMODULE'),
  ('xml.sax.expatreader',
   '/Users/j/.pyenv/versions/3.9.5/lib/python3.9/xml/sax/expatreader.py',
   'PYMODULE'),
  ('xml.sax.saxutils',
   '/Users/j/.pyenv/versions/3.9.5/lib/python3.9/xml/sax/saxutils.py',
   'PYMODULE'),
  ('urllib.request',
   '/Users/j/.pyenv/versions/3.9.5/lib/python3.9/urllib/request.py',
   'PYMODULE'),
  ('getpass',
   '/Users/j/.pyenv/versions/3.9.5/lib/python3.9/getpass.py',
   'PYMODULE'),
  ('nturl2path',
   '/Users/j/.pyenv/versions/3.9.5/lib/python3.9/nturl2path.py',
   'PYMODULE'),
  ('ftplib',
   '/Users/j/.pyenv/versions/3.9.5/lib/python3.9/ftplib.py',
   'PYMODULE'),
  ('netrc',
   '/Users/j/.pyenv/versions/3.9.5/lib/python3.9/netrc.py',
   'PYMODULE'),
  ('mimetypes',
   '/Users/j/.pyenv/versions/3.9.5/lib/python3.9/mimetypes.py',
   'PYMODULE'),
  ('http.cookiejar',
   '/Users/j/.pyenv/versions/3.9.5/lib/python3.9/http/cookiejar.py',
   'PYMODULE'),
  ('http',
   '/Users/j/.pyenv/versions/3.9.5/lib/python3.9/http/__init__.py',
   'PYMODULE'),
  ('urllib.response',
   '/Users/j/.pyenv/versions/3.9.5/lib/python3.9/urllib/response.py',
   'PYMODULE'),
  ('urllib.error',
   '/Users/j/.pyenv/versions/3.9.5/lib/python3.9/urllib/error.py',
   'PYMODULE'),
  ('xml.sax',
   '/Users/j/.pyenv/versions/3.9.5/lib/python3.9/xml/sax/__init__.py',
   'PYMODULE'),
  ('xml.sax.handler',
   '/Users/j/.pyenv/versions/3.9.5/lib/python3.9/xml/sax/handler.py',
   'PYMODULE'),
  ('xml.sax._exceptions',
   '/Users/j/.pyenv/versions/3.9.5/lib/python3.9/xml/sax/_exceptions.py',
   'PYMODULE'),
  ('xml.sax.xmlreader',
   '/Users/j/.pyenv/versions/3.9.5/lib/python3.9/xml/sax/xmlreader.py',
   'PYMODULE'),
  ('http.client',
   '/Users/j/.pyenv/versions/3.9.5/lib/python3.9/http/client.py',
   'PYMODULE'),
  ('multiprocessing',
   '/Users/j/.pyenv/versions/3.9.5/lib/python3.9/multiprocessing/__init__.py',
   'PYMODULE'),
  ('concurrent.futures._base',
   '/Users/j/.pyenv/versions/3.9.5/lib/python3.9/concurrent/futures/_base.py',
   'PYMODULE'),
  ('concurrent',
   '/Users/j/.pyenv/versions/3.9.5/lib/python3.9/concurrent/__init__.py',
   'PYMODULE'),
  ('asyncio.trsock',
   '/Users/j/.pyenv/versions/3.9.5/lib/python3.9/asyncio/trsock.py',
   'PYMODULE'),
  ('asyncio.staggered',
   '/Users/j/.pyenv/versions/3.9.5/lib/python3.9/asyncio/staggered.py',
   'PYMODULE'),
  ('asyncio.tasks',
   '/Users/j/.pyenv/versions/3.9.5/lib/python3.9/asyncio/tasks.py',
   'PYMODULE'),
  ('asyncio.base_tasks',
   '/Users/j/.pyenv/versions/3.9.5/lib/python3.9/asyncio/base_tasks.py',
   'PYMODULE'),
  ('asyncio.locks',
   '/Users/j/.pyenv/versions/3.9.5/lib/python3.9/asyncio/locks.py',
   'PYMODULE'),
  ('asyncio.sslproto',
   '/Users/j/.pyenv/versions/3.9.5/lib/python3.9/asyncio/sslproto.py',
   'PYMODULE'),
  ('asyncio.transports',
   '/Users/j/.pyenv/versions/3.9.5/lib/python3.9/asyncio/transports.py',
   'PYMODULE'),
  ('asyncio.protocols',
   '/Users/j/.pyenv/versions/3.9.5/lib/python3.9/asyncio/protocols.py',
   'PYMODULE'),
  ('asyncio.futures',
   '/Users/j/.pyenv/versions/3.9.5/lib/python3.9/asyncio/futures.py',
   'PYMODULE'),
  ('asyncio.exceptions',
   '/Users/j/.pyenv/versions/3.9.5/lib/python3.9/asyncio/exceptions.py',
   'PYMODULE'),
  ('asyncio.coroutines',
   '/Users/j/.pyenv/versions/3.9.5/lib/python3.9/asyncio/coroutines.py',
   'PYMODULE'),
  ('asyncio.base_futures',
   '/Users/j/.pyenv/versions/3.9.5/lib/python3.9/asyncio/base_futures.py',
   'PYMODULE'),
  ('asyncio.format_helpers',
   '/Users/j/.pyenv/versions/3.9.5/lib/python3.9/asyncio/format_helpers.py',
   'PYMODULE'),
  ('asyncio.constants',
   '/Users/j/.pyenv/versions/3.9.5/lib/python3.9/asyncio/constants.py',
   'PYMODULE'),
  ('unittest.signals',
   '/Users/j/.pyenv/versions/3.9.5/lib/python3.9/unittest/signals.py',
   'PYMODULE'),
  ('unittest.main',
   '/Users/j/.pyenv/versions/3.9.5/lib/python3.9/unittest/main.py',
   'PYMODULE'),
  ('unittest.runner',
   '/Users/j/.pyenv/versions/3.9.5/lib/python3.9/unittest/runner.py',
   'PYMODULE'),
  ('unittest.loader',
   '/Users/j/.pyenv/versions/3.9.5/lib/python3.9/unittest/loader.py',
   'PYMODULE'),
  ('unittest.suite',
   '/Users/j/.pyenv/versions/3.9.5/lib/python3.9/unittest/suite.py',
   'PYMODULE'),
  ('unittest.case',
   '/Users/j/.pyenv/versions/3.9.5/lib/python3.9/unittest/case.py',
   'PYMODULE'),
  ('unittest._log',
   '/Users/j/.pyenv/versions/3.9.5/lib/python3.9/unittest/_log.py',
   'PYMODULE'),
  ('unittest.result',
   '/Users/j/.pyenv/versions/3.9.5/lib/python3.9/unittest/result.py',
   'PYMODULE'),
  ('unittest.util',
   '/Users/j/.pyenv/versions/3.9.5/lib/python3.9/unittest/util.py',
   'PYMODULE'),
  ('difflib',
   '/Users/j/.pyenv/versions/3.9.5/lib/python3.9/difflib.py',
   'PYMODULE'),
  ('__future__',
   '/Users/j/.pyenv/versions/3.9.5/lib/python3.9/__future__.py',
   'PYMODULE'),
  ('_compat_pickle',
   '/Users/j/.pyenv/versions/3.9.5/lib/python3.9/_compat_pickle.py',
   'PYMODULE'),
  ('bisect',
   '/Users/j/.pyenv/versions/3.9.5/lib/python3.9/bisect.py',
   'PYMODULE'),
  ('email._encoded_words',
   '/Users/j/.pyenv/versions/3.9.5/lib/python3.9/email/_encoded_words.py',
   'PYMODULE'),
  ('email.charset',
   '/Users/j/.pyenv/versions/3.9.5/lib/python3.9/email/charset.py',
   'PYMODULE'),
  ('email.encoders',
   '/Users/j/.pyenv/versions/3.9.5/lib/python3.9/email/encoders.py',
   'PYMODULE'),
  ('email.base64mime',
   '/Users/j/.pyenv/versions/3.9.5/lib/python3.9/email/base64mime.py',
   'PYMODULE'),
  ('email._policybase',
   '/Users/j/.pyenv/versions/3.9.5/lib/python3.9/email/_policybase.py',
   'PYMODULE'),
  ('email.header',
   '/Users/j/.pyenv/versions/3.9.5/lib/python3.9/email/header.py',
   'PYMODULE'),
  ('email.errors',
   '/Users/j/.pyenv/versions/3.9.5/lib/python3.9/email/errors.py',
   'PYMODULE'),
  ('email.utils',
   '/Users/j/.pyenv/versions/3.9.5/lib/python3.9/email/utils.py',
   'PYMODULE'),
  ('email._parseaddr',
   '/Users/j/.pyenv/versions/3.9.5/lib/python3.9/email/_parseaddr.py',
   'PYMODULE'),
  ('email',
   '/Users/j/.pyenv/versions/3.9.5/lib/python3.9/email/__init__.py',
   'PYMODULE'),
  ('quopri',
   '/Users/j/.pyenv/versions/3.9.5/lib/python3.9/quopri.py',
   'PYMODULE'),
  ('uu', '/Users/j/.pyenv/versions/3.9.5/lib/python3.9/uu.py', 'PYMODULE'),
  ('optparse',
   '/Users/j/.pyenv/versions/3.9.5/lib/python3.9/optparse.py',
   'PYMODULE'),
  ('http.server',
   '/Users/j/.pyenv/versions/3.9.5/lib/python3.9/http/server.py',
   'PYMODULE'),
  ('socketserver',
   '/Users/j/.pyenv/versions/3.9.5/lib/python3.9/socketserver.py',
   'PYMODULE'),
  ('pydoc_data.topics',
   '/Users/j/.pyenv/versions/3.9.5/lib/python3.9/pydoc_data/topics.py',
   'PYMODULE'),
  ('pydoc_data',
   '/Users/j/.pyenv/versions/3.9.5/lib/python3.9/pydoc_data/__init__.py',
   'PYMODULE'),
  ('tty', '/Users/j/.pyenv/versions/3.9.5/lib/python3.9/tty.py', 'PYMODULE'),
  ('subprocess',
   '/Users/j/.pyenv/versions/3.9.5/lib/python3.9/subprocess.py',
   'PYMODULE'),
  ('urllib.parse',
   '/Users/j/.pyenv/versions/3.9.5/lib/python3.9/urllib/parse.py',
   'PYMODULE'),
  ('importlib.util',
   '/Users/j/.pyenv/versions/3.9.5/lib/python3.9/importlib/util.py',
   'PYMODULE'),
  ('importlib.abc',
   '/Users/j/.pyenv/versions/3.9.5/lib/python3.9/importlib/abc.py',
   'PYMODULE'),
  ('importlib._bootstrap_external',
   '/Users/j/.pyenv/versions/3.9.5/lib/python3.9/importlib/_bootstrap_external.py',
   'PYMODULE'),
  ('importlib.metadata',
   '/Users/j/.pyenv/versions/3.9.5/lib/python3.9/importlib/metadata.py',
   'PYMODULE'),
  ('configparser',
   '/Users/j/.pyenv/versions/3.9.5/lib/python3.9/configparser.py',
   'PYMODULE'),
  ('csv', '/Users/j/.pyenv/versions/3.9.5/lib/python3.9/csv.py', 'PYMODULE'),
  ('importlib._bootstrap',
   '/Users/j/.pyenv/versions/3.9.5/lib/python3.9/importlib/_bootstrap.py',
   'PYMODULE'),
  ('runpy',
   '/Users/j/.pyenv/versions/3.9.5/lib/python3.9/runpy.py',
   'PYMODULE'),
  ('shlex',
   '/Users/j/.pyenv/versions/3.9.5/lib/python3.9/shlex.py',
   'PYMODULE'),
  ('tokenize',
   '/Users/j/.pyenv/versions/3.9.5/lib/python3.9/tokenize.py',
   'PYMODULE'),
  ('token',
   '/Users/j/.pyenv/versions/3.9.5/lib/python3.9/token.py',
   'PYMODULE'),
  ('signal',
   '/Users/j/.pyenv/versions/3.9.5/lib/python3.9/signal.py',
   'PYMODULE'),
  ('glob', '/Users/j/.pyenv/versions/3.9.5/lib/python3.9/glob.py', 'PYMODULE'),
  ('code', '/Users/j/.pyenv/versions/3.9.5/lib/python3.9/code.py', 'PYMODULE'),
  ('codeop',
   '/Users/j/.pyenv/versions/3.9.5/lib/python3.9/codeop.py',
   'PYMODULE'),
  ('dis', '/Users/j/.pyenv/versions/3.9.5/lib/python3.9/dis.py', 'PYMODULE'),
  ('opcode',
   '/Users/j/.pyenv/versions/3.9.5/lib/python3.9/opcode.py',
   'PYMODULE'),
  ('bdb', '/Users/j/.pyenv/versions/3.9.5/lib/python3.9/bdb.py', 'PYMODULE'),
  ('cmd', '/Users/j/.pyenv/versions/3.9.5/lib/python3.9/cmd.py', 'PYMODULE'),
  ('string',
   '/Users/j/.pyenv/versions/3.9.5/lib/python3.9/string.py',
   'PYMODULE'),
  ('pyparsing.actions',
   '/Users/j/.local/share/virtualenvs/sokoban_joanna_2021-mic4QEav/lib/python3.9/site-packages/pyparsing/actions.py',
   'PYMODULE'),
  ('pyparsing.exceptions',
   '/Users/j/.local/share/virtualenvs/sokoban_joanna_2021-mic4QEav/lib/python3.9/site-packages/pyparsing/exceptions.py',
   'PYMODULE'),
  ('pyparsing.util',
   '/Users/j/.local/share/virtualenvs/sokoban_joanna_2021-mic4QEav/lib/python3.9/site-packages/pyparsing/util.py',
   'PYMODULE'),
  ('typing',
   '/Users/j/.pyenv/versions/3.9.5/lib/python3.9/typing.py',
   'PYMODULE'),
  ('packaging',
   '/Users/j/.local/share/virtualenvs/sokoban_joanna_2021-mic4QEav/lib/python3.9/site-packages/packaging/__init__.py',
   'PYMODULE'),
  ('packaging.__about__',
   '/Users/j/.local/share/virtualenvs/sokoban_joanna_2021-mic4QEav/lib/python3.9/site-packages/packaging/__about__.py',
   'PYMODULE'),
  ('packaging.version',
   '/Users/j/.local/share/virtualenvs/sokoban_joanna_2021-mic4QEav/lib/python3.9/site-packages/packaging/version.py',
   'PYMODULE'),
  ('packaging.specifiers',
   '/Users/j/.local/share/virtualenvs/sokoban_joanna_2021-mic4QEav/lib/python3.9/site-packages/packaging/specifiers.py',
   'PYMODULE'),
  ('packaging._musllinux',
   '/Users/j/.local/share/virtualenvs/sokoban_joanna_2021-mic4QEav/lib/python3.9/site-packages/packaging/_musllinux.py',
   'PYMODULE'),
  ('packaging.utils',
   '/Users/j/.local/share/virtualenvs/sokoban_joanna_2021-mic4QEav/lib/python3.9/site-packages/packaging/utils.py',
   'PYMODULE'),
  ('packaging.requirements',
   '/Users/j/.local/share/virtualenvs/sokoban_joanna_2021-mic4QEav/lib/python3.9/site-packages/packaging/requirements.py',
   'PYMODULE'),
  ('packaging.tags',
   '/Users/j/.local/share/virtualenvs/sokoban_joanna_2021-mic4QEav/lib/python3.9/site-packages/packaging/tags.py',
   'PYMODULE'),
  ('packaging._structures',
   '/Users/j/.local/share/virtualenvs/sokoban_joanna_2021-mic4QEav/lib/python3.9/site-packages/packaging/_structures.py',
   'PYMODULE'),
  ('packaging._manylinux',
   '/Users/j/.local/share/virtualenvs/sokoban_joanna_2021-mic4QEav/lib/python3.9/site-packages/packaging/_manylinux.py',
   'PYMODULE'),
  ('pkg_resources._vendor.appdirs',
   '/Users/j/.local/share/virtualenvs/sokoban_joanna_2021-mic4QEav/lib/python3.9/site-packages/pkg_resources/_vendor/appdirs.py',
   'PYMODULE'),
  ('pkg_resources._vendor.packaging',
   '/Users/j/.local/share/virtualenvs/sokoban_joanna_2021-mic4QEav/lib/python3.9/site-packages/pkg_resources/_vendor/packaging/__init__.py',
   'PYMODULE'),
  ('pkg_resources._vendor.packaging.specifiers',
   '/Users/j/.local/share/virtualenvs/sokoban_joanna_2021-mic4QEav/lib/python3.9/site-packages/pkg_resources/_vendor/packaging/specifiers.py',
   'PYMODULE'),
  ('pkg_resources._vendor.packaging._compat',
   '/Users/j/.local/share/virtualenvs/sokoban_joanna_2021-mic4QEav/lib/python3.9/site-packages/pkg_resources/_vendor/packaging/_compat.py',
   'PYMODULE'),
  ('pkg_resources._vendor.packaging.utils',
   '/Users/j/.local/share/virtualenvs/sokoban_joanna_2021-mic4QEav/lib/python3.9/site-packages/pkg_resources/_vendor/packaging/utils.py',
   'PYMODULE'),
  ('pkg_resources._vendor.packaging.requirements',
   '/Users/j/.local/share/virtualenvs/sokoban_joanna_2021-mic4QEav/lib/python3.9/site-packages/pkg_resources/_vendor/packaging/requirements.py',
   'PYMODULE'),
  ('pkg_resources._vendor.packaging._typing',
   '/Users/j/.local/share/virtualenvs/sokoban_joanna_2021-mic4QEav/lib/python3.9/site-packages/pkg_resources/_vendor/packaging/_typing.py',
   'PYMODULE'),
  ('pkg_resources._vendor.packaging._structures',
   '/Users/j/.local/share/virtualenvs/sokoban_joanna_2021-mic4QEav/lib/python3.9/site-packages/pkg_resources/_vendor/packaging/_structures.py',
   'PYMODULE'),
  ('pkg_resources._vendor',
   '/Users/j/.local/share/virtualenvs/sokoban_joanna_2021-mic4QEav/lib/python3.9/site-packages/pkg_resources/_vendor/__init__.py',
   'PYMODULE'),
  ('pkg_resources._vendor.packaging.__about__',
   '/Users/j/.local/share/virtualenvs/sokoban_joanna_2021-mic4QEav/lib/python3.9/site-packages/pkg_resources/_vendor/packaging/__about__.py',
   'PYMODULE'),
  ('pkg_resources._vendor.packaging.tags',
   '/Users/j/.local/share/virtualenvs/sokoban_joanna_2021-mic4QEav/lib/python3.9/site-packages/pkg_resources/_vendor/packaging/tags.py',
   'PYMODULE'),
  ('distutils.util',
   '/Users/j/.pyenv/versions/3.9.5/lib/python3.9/distutils/util.py',
   'PYMODULE'),
  ('distutils.filelist',
   '/Users/j/.pyenv/versions/3.9.5/lib/python3.9/distutils/filelist.py',
   'PYMODULE'),
  ('distutils.debug',
   '/Users/j/.pyenv/versions/3.9.5/lib/python3.9/distutils/debug.py',
   'PYMODULE'),
  ('distutils.file_util',
   '/Users/j/.pyenv/versions/3.9.5/lib/python3.9/distutils/file_util.py',
   'PYMODULE'),
  ('distutils.dir_util',
   '/Users/j/.pyenv/versions/3.9.5/lib/python3.9/distutils/dir_util.py',
   'PYMODULE'),
  ('py_compile',
   '/Users/j/.pyenv/versions/3.9.5/lib/python3.9/py_compile.py',
   'PYMODULE'),
  ('distutils.sysconfig',
   '/Users/j/.pyenv/versions/3.9.5/lib/python3.9/distutils/sysconfig.py',
   'PYMODULE'),
  ('distutils.text_file',
   '/Users/j/.pyenv/versions/3.9.5/lib/python3.9/distutils/text_file.py',
   'PYMODULE'),
  ('_osx_support',
   '/Users/j/.pyenv/versions/3.9.5/lib/python3.9/_osx_support.py',
   'PYMODULE'),
  ('_aix_support',
   '/Users/j/.pyenv/versions/3.9.5/lib/python3.9/_aix_support.py',
   'PYMODULE'),
  ('_bootsubprocess',
   '/Users/j/.pyenv/versions/3.9.5/lib/python3.9/_bootsubprocess.py',
   'PYMODULE'),
  ('distutils.log',
   '/Users/j/.pyenv/versions/3.9.5/lib/python3.9/distutils/log.py',
   'PYMODULE'),
  ('distutils',
   '/Users/j/.pyenv/versions/3.9.5/lib/python3.9/distutils/__init__.py',
   'PYMODULE'),
  ('_sysconfigdata__darwin_darwin',
   '/Users/j/.pyenv/versions/3.9.5/lib/python3.9/_sysconfigdata__darwin_darwin.py',
   'PYMODULE'),
  ('distutils.ccompiler',
   '/Users/j/.pyenv/versions/3.9.5/lib/python3.9/distutils/ccompiler.py',
   'PYMODULE'),
  ('distutils.fancy_getopt',
   '/Users/j/.pyenv/versions/3.9.5/lib/python3.9/distutils/fancy_getopt.py',
   'PYMODULE'),
  ('distutils.spawn',
   '/Users/j/.pyenv/versions/3.9.5/lib/python3.9/distutils/spawn.py',
   'PYMODULE'),
  ('distutils.dep_util',
   '/Users/j/.pyenv/versions/3.9.5/lib/python3.9/distutils/dep_util.py',
   'PYMODULE'),
  ('distutils.errors',
   '/Users/j/.pyenv/versions/3.9.5/lib/python3.9/distutils/errors.py',
   'PYMODULE'),
  ('pkg_resources._vendor.packaging.markers',
   '/Users/j/.local/share/virtualenvs/sokoban_joanna_2021-mic4QEav/lib/python3.9/site-packages/pkg_resources/_vendor/packaging/markers.py',
   'PYMODULE'),
  ('pkg_resources._vendor.packaging.version',
   '/Users/j/.local/share/virtualenvs/sokoban_joanna_2021-mic4QEav/lib/python3.9/site-packages/pkg_resources/_vendor/packaging/version.py',
   'PYMODULE'),
  ('pkg_resources._vendor.pyparsing',
   '/Users/j/.local/share/virtualenvs/sokoban_joanna_2021-mic4QEav/lib/python3.9/site-packages/pkg_resources/_vendor/pyparsing.py',
   'PYMODULE'),
  ('uuid', '/Users/j/.pyenv/versions/3.9.5/lib/python3.9/uuid.py', 'PYMODULE'),
  ('sysconfig',
   '/Users/j/.pyenv/versions/3.9.5/lib/python3.9/sysconfig.py',
   'PYMODULE'),
  ('pkg_resources.extern',
   '/Users/j/.local/share/virtualenvs/sokoban_joanna_2021-mic4QEav/lib/python3.9/site-packages/pkg_resources/extern/__init__.py',
   'PYMODULE'),
  ('importlib.machinery',
   '/Users/j/.pyenv/versions/3.9.5/lib/python3.9/importlib/machinery.py',
   'PYMODULE'),
  ('imp', '/Users/j/.pyenv/versions/3.9.5/lib/python3.9/imp.py', 'PYMODULE'),
  ('importlib',
   '/Users/j/.pyenv/versions/3.9.5/lib/python3.9/importlib/__init__.py',
   'PYMODULE'),
  ('posixpath',
   '/Users/j/.pyenv/versions/3.9.5/lib/python3.9/posixpath.py',
   'PYMODULE'),
  ('genericpath',
   '/Users/j/.pyenv/versions/3.9.5/lib/python3.9/genericpath.py',
   'PYMODULE'),
  ('ntpath',
   '/Users/j/.pyenv/versions/3.9.5/lib/python3.9/ntpath.py',
   'PYMODULE'),
  ('inspect',
   '/Users/j/.pyenv/versions/3.9.5/lib/python3.9/inspect.py',
   'PYMODULE'),
  ('ast', '/Users/j/.pyenv/versions/3.9.5/lib/python3.9/ast.py', 'PYMODULE'),
  ('textwrap',
   '/Users/j/.pyenv/versions/3.9.5/lib/python3.9/textwrap.py',
   'PYMODULE'),
  ('tempfile',
   '/Users/j/.pyenv/versions/3.9.5/lib/python3.9/tempfile.py',
   'PYMODULE'),
  ('email.parser',
   '/Users/j/.pyenv/versions/3.9.5/lib/python3.9/email/parser.py',
   'PYMODULE'),
  ('email.feedparser',
   '/Users/j/.pyenv/versions/3.9.5/lib/python3.9/email/feedparser.py',
   'PYMODULE'),
  ('plistlib',
   '/Users/j/.pyenv/versions/3.9.5/lib/python3.9/plistlib.py',
   'PYMODULE'),
  ('platform',
   '/Users/j/.pyenv/versions/3.9.5/lib/python3.9/platform.py',
   'PYMODULE'),
  ('pkgutil',
   '/Users/j/.pyenv/versions/3.9.5/lib/python3.9/pkgutil.py',
   'PYMODULE'),
  ('stat', '/Users/j/.pyenv/versions/3.9.5/lib/python3.9/stat.py', 'PYMODULE'),
  ('zipimport',
   '/Users/j/.pyenv/versions/3.9.5/lib/python3.9/zipimport.py',
   'PYMODULE'),
  ('zipfile',
   '/Users/j/.pyenv/versions/3.9.5/lib/python3.9/zipfile.py',
   'PYMODULE'),
  ('pathlib',
   '/Users/j/.pyenv/versions/3.9.5/lib/python3.9/pathlib.py',
   'PYMODULE'),
  ('os', '/Users/j/.pyenv/versions/3.9.5/lib/python3.9/os.py', 'PYMODULE'),
  ('stringprep',
   '/Users/j/.pyenv/versions/3.9.5/lib/python3.9/stringprep.py',
   'PYMODULE'),
  ('_py_abc',
   '/Users/j/.pyenv/versions/3.9.5/lib/python3.9/_py_abc.py',
   'PYMODULE'),
  ('tracemalloc',
   '/Users/j/.pyenv/versions/3.9.5/lib/python3.9/tracemalloc.py',
   'PYMODULE'),
  ('player', '/Users/j/Desktop/projects/sokoban_1/player.py', 'PYMODULE'),
  ('velocity', '/Users/j/Desktop/projects/sokoban_1/velocity.py', 'PYMODULE'),
  ('cell_types',
   '/Users/j/Desktop/projects/sokoban_1/cell_types.py',
   'PYMODULE'),
  ('directions',
   '/Users/j/Desktop/projects/sokoban_1/directions.py',
   'PYMODULE'),
  ('colors', '/Users/j/Desktop/projects/sokoban_1/colors.py', 'PYMODULE'),
  ('game_state',
   '/Users/j/Desktop/projects/sokoban_1/game_state.py',
   'PYMODULE'),
  ('constants', '/Users/j/Desktop/projects/sokoban_1/constants.py', 'PYMODULE'),
  ('pygame',
   '/Users/j/.local/share/virtualenvs/sokoban_joanna_2021-mic4QEav/lib/python3.9/site-packages/pygame/__init__.py',
   'PYMODULE'),
  ('pygame.colordict',
   '/Users/j/.local/share/virtualenvs/sokoban_joanna_2021-mic4QEav/lib/python3.9/site-packages/pygame/colordict.py',
   'PYMODULE'),
  ('pygame.macosx',
   '/Users/j/.local/share/virtualenvs/sokoban_joanna_2021-mic4QEav/lib/python3.9/site-packages/pygame/macosx.py',
   'PYMODULE'),
  ('pygame.pkgdata',
   '/Users/j/.local/share/virtualenvs/sokoban_joanna_2021-mic4QEav/lib/python3.9/site-packages/pygame/pkgdata.py',
   'PYMODULE'),
  ('pygame.sndarray',
   '/Users/j/.local/share/virtualenvs/sokoban_joanna_2021-mic4QEav/lib/python3.9/site-packages/pygame/sndarray.py',
   'PYMODULE'),
  ('pygame.surfarray',
   '/Users/j/.local/share/virtualenvs/sokoban_joanna_2021-mic4QEav/lib/python3.9/site-packages/pygame/surfarray.py',
   'PYMODULE'),
  ('pygame.sysfont',
   '/Users/j/.local/share/virtualenvs/sokoban_joanna_2021-mic4QEav/lib/python3.9/site-packages/pygame/sysfont.py',
   'PYMODULE'),
  ('pygame.ftfont',
   '/Users/j/.local/share/virtualenvs/sokoban_joanna_2021-mic4QEav/lib/python3.9/site-packages/pygame/ftfont.py',
   'PYMODULE'),
  ('pygame.threads',
   '/Users/j/.local/share/virtualenvs/sokoban_joanna_2021-mic4QEav/lib/python3.9/site-packages/pygame/threads/__init__.py',
   'PYMODULE'),
  ('pygame.sprite',
   '/Users/j/.local/share/virtualenvs/sokoban_joanna_2021-mic4QEav/lib/python3.9/site-packages/pygame/sprite.py',
   'PYMODULE'),
  ('pygame.cursors',
   '/Users/j/.local/share/virtualenvs/sokoban_joanna_2021-mic4QEav/lib/python3.9/site-packages/pygame/cursors.py',
   'PYMODULE'),
  ('pygame.compat',
   '/Users/j/.local/share/virtualenvs/sokoban_joanna_2021-mic4QEav/lib/python3.9/site-packages/pygame/compat.py',
   'PYMODULE'),
  ('pygame.version',
   '/Users/j/.local/share/virtualenvs/sokoban_joanna_2021-mic4QEav/lib/python3.9/site-packages/pygame/version.py',
   'PYMODULE')],
 [('libpython3.9.dylib',
   '/Users/j/.pyenv/versions/3.9.5/lib/libpython3.9.dylib',
   'BINARY'),
  ('lib-dynload/_datetime',
   '/Users/j/.pyenv/versions/3.9.5/lib/python3.9/lib-dynload/_datetime.cpython-39-darwin.so',
   'EXTENSION'),
  ('lib-dynload/_struct',
   '/Users/j/.pyenv/versions/3.9.5/lib/python3.9/lib-dynload/_struct.cpython-39-darwin.so',
   'EXTENSION'),
  ('lib-dynload/resource',
   '/Users/j/.pyenv/versions/3.9.5/lib/python3.9/lib-dynload/resource.cpython-39-darwin.so',
   'EXTENSION'),
  ('lib-dynload/grp',
   '/Users/j/.pyenv/versions/3.9.5/lib/python3.9/lib-dynload/grp.cpython-39-darwin.so',
   'EXTENSION'),
  ('lib-dynload/_lzma',
   '/Users/j/.pyenv/versions/3.9.5/lib/python3.9/lib-dynload/_lzma.cpython-39-darwin.so',
   'EXTENSION'),
  ('lib-dynload/_bz2',
   '/Users/j/.pyenv/versions/3.9.5/lib/python3.9/lib-dynload/_bz2.cpython-39-darwin.so',
   'EXTENSION'),
  ('lib-dynload/zlib',
   '/Users/j/.pyenv/versions/3.9.5/lib/python3.9/lib-dynload/zlib.cpython-39-darwin.so',
   'EXTENSION'),
  ('lib-dynload/math',
   '/Users/j/.pyenv/versions/3.9.5/lib/python3.9/lib-dynload/math.cpython-39-darwin.so',
   'EXTENSION'),
  ('lib-dynload/array',
   '/Users/j/.pyenv/versions/3.9.5/lib/python3.9/lib-dynload/array.cpython-39-darwin.so',
   'EXTENSION'),
  ('lib-dynload/_socket',
   '/Users/j/.pyenv/versions/3.9.5/lib/python3.9/lib-dynload/_socket.cpython-39-darwin.so',
   'EXTENSION'),
  ('lib-dynload/select',
   '/Users/j/.pyenv/versions/3.9.5/lib/python3.9/lib-dynload/select.cpython-39-darwin.so',
   'EXTENSION'),
  ('lib-dynload/binascii',
   '/Users/j/.pyenv/versions/3.9.5/lib/python3.9/lib-dynload/binascii.cpython-39-darwin.so',
   'EXTENSION'),
  ('lib-dynload/_statistics',
   '/Users/j/.pyenv/versions/3.9.5/lib/python3.9/lib-dynload/_statistics.cpython-39-darwin.so',
   'EXTENSION'),
  ('lib-dynload/_contextvars',
   '/Users/j/.pyenv/versions/3.9.5/lib/python3.9/lib-dynload/_contextvars.cpython-39-darwin.so',
   'EXTENSION'),
  ('lib-dynload/_decimal',
   '/Users/j/.pyenv/versions/3.9.5/lib/python3.9/lib-dynload/_decimal.cpython-39-darwin.so',
   'EXTENSION'),
  ('lib-dynload/_ssl',
   '/Users/j/.pyenv/versions/3.9.5/lib/python3.9/lib-dynload/_ssl.cpython-39-darwin.so',
   'EXTENSION'),
  ('lib-dynload/_asyncio',
   '/Users/j/.pyenv/versions/3.9.5/lib/python3.9/lib-dynload/_asyncio.cpython-39-darwin.so',
   'EXTENSION'),
  ('lib-dynload/_queue',
   '/Users/j/.pyenv/versions/3.9.5/lib/python3.9/lib-dynload/_queue.cpython-39-darwin.so',
   'EXTENSION'),
  ('lib-dynload/mmap',
   '/Users/j/.pyenv/versions/3.9.5/lib/python3.9/lib-dynload/mmap.cpython-39-darwin.so',
   'EXTENSION'),
  ('lib-dynload/_posixshmem',
   '/Users/j/.pyenv/versions/3.9.5/lib/python3.9/lib-dynload/_posixshmem.cpython-39-darwin.so',
   'EXTENSION'),
  ('lib-dynload/_posixsubprocess',
   '/Users/j/.pyenv/versions/3.9.5/lib/python3.9/lib-dynload/_posixsubprocess.cpython-39-darwin.so',
   'EXTENSION'),
  ('lib-dynload/_ctypes',
   '/Users/j/.pyenv/versions/3.9.5/lib/python3.9/lib-dynload/_ctypes.cpython-39-darwin.so',
   'EXTENSION'),
  ('lib-dynload/_multiprocessing',
   '/Users/j/.pyenv/versions/3.9.5/lib/python3.9/lib-dynload/_multiprocessing.cpython-39-darwin.so',
   'EXTENSION'),
  ('lib-dynload/pyexpat',
   '/Users/j/.pyenv/versions/3.9.5/lib/python3.9/lib-dynload/pyexpat.cpython-39-darwin.so',
   'EXTENSION'),
  ('lib-dynload/_scproxy',
   '/Users/j/.pyenv/versions/3.9.5/lib/python3.9/lib-dynload/_scproxy.cpython-39-darwin.so',
   'EXTENSION'),
  ('lib-dynload/termios',
   '/Users/j/.pyenv/versions/3.9.5/lib/python3.9/lib-dynload/termios.cpython-39-darwin.so',
   'EXTENSION'),
  ('lib-dynload/_pickle',
   '/Users/j/.pyenv/versions/3.9.5/lib/python3.9/lib-dynload/_pickle.cpython-39-darwin.so',
   'EXTENSION'),
  ('lib-dynload/_hashlib',
   '/Users/j/.pyenv/versions/3.9.5/lib/python3.9/lib-dynload/_hashlib.cpython-39-darwin.so',
   'EXTENSION'),
  ('lib-dynload/_sha3',
   '/Users/j/.pyenv/versions/3.9.5/lib/python3.9/lib-dynload/_sha3.cpython-39-darwin.so',
   'EXTENSION'),
  ('lib-dynload/_blake2',
   '/Users/j/.pyenv/versions/3.9.5/lib/python3.9/lib-dynload/_blake2.cpython-39-darwin.so',
   'EXTENSION'),
  ('lib-dynload/_sha256',
   '/Users/j/.pyenv/versions/3.9.5/lib/python3.9/lib-dynload/_sha256.cpython-39-darwin.so',
   'EXTENSION'),
  ('lib-dynload/_md5',
   '/Users/j/.pyenv/versions/3.9.5/lib/python3.9/lib-dynload/_md5.cpython-39-darwin.so',
   'EXTENSION'),
  ('lib-dynload/_sha1',
   '/Users/j/.pyenv/versions/3.9.5/lib/python3.9/lib-dynload/_sha1.cpython-39-darwin.so',
   'EXTENSION'),
  ('lib-dynload/_sha512',
   '/Users/j/.pyenv/versions/3.9.5/lib/python3.9/lib-dynload/_sha512.cpython-39-darwin.so',
   'EXTENSION'),
  ('lib-dynload/_random',
   '/Users/j/.pyenv/versions/3.9.5/lib/python3.9/lib-dynload/_random.cpython-39-darwin.so',
   'EXTENSION'),
  ('lib-dynload/_bisect',
   '/Users/j/.pyenv/versions/3.9.5/lib/python3.9/lib-dynload/_bisect.cpython-39-darwin.so',
   'EXTENSION'),
  ('lib-dynload/unicodedata',
   '/Users/j/.pyenv/versions/3.9.5/lib/python3.9/lib-dynload/unicodedata.cpython-39-darwin.so',
   'EXTENSION'),
  ('lib-dynload/_csv',
   '/Users/j/.pyenv/versions/3.9.5/lib/python3.9/lib-dynload/_csv.cpython-39-darwin.so',
   'EXTENSION'),
  ('lib-dynload/readline',
   '/Users/j/.pyenv/versions/3.9.5/lib/python3.9/lib-dynload/readline.cpython-39-darwin.so',
   'EXTENSION'),
  ('lib-dynload/_opcode',
   '/Users/j/.pyenv/versions/3.9.5/lib/python3.9/lib-dynload/_opcode.cpython-39-darwin.so',
   'EXTENSION'),
  ('lib-dynload/_uuid',
   '/Users/j/.pyenv/versions/3.9.5/lib/python3.9/lib-dynload/_uuid.cpython-39-darwin.so',
   'EXTENSION'),
  ('lib-dynload/_multibytecodec',
   '/Users/j/.pyenv/versions/3.9.5/lib/python3.9/lib-dynload/_multibytecodec.cpython-39-darwin.so',
   'EXTENSION'),
  ('lib-dynload/_codecs_jp',
   '/Users/j/.pyenv/versions/3.9.5/lib/python3.9/lib-dynload/_codecs_jp.cpython-39-darwin.so',
   'EXTENSION'),
  ('lib-dynload/_codecs_iso2022',
   '/Users/j/.pyenv/versions/3.9.5/lib/python3.9/lib-dynload/_codecs_iso2022.cpython-39-darwin.so',
   'EXTENSION'),
  ('lib-dynload/_codecs_tw',
   '/Users/j/.pyenv/versions/3.9.5/lib/python3.9/lib-dynload/_codecs_tw.cpython-39-darwin.so',
   'EXTENSION'),
  ('lib-dynload/_codecs_cn',
   '/Users/j/.pyenv/versions/3.9.5/lib/python3.9/lib-dynload/_codecs_cn.cpython-39-darwin.so',
   'EXTENSION'),
  ('lib-dynload/_codecs_kr',
   '/Users/j/.pyenv/versions/3.9.5/lib/python3.9/lib-dynload/_codecs_kr.cpython-39-darwin.so',
   'EXTENSION'),
  ('lib-dynload/_codecs_hk',
   '/Users/j/.pyenv/versions/3.9.5/lib/python3.9/lib-dynload/_codecs_hk.cpython-39-darwin.so',
   'EXTENSION'),
  ('lib-dynload/_heapq',
   '/Users/j/.pyenv/versions/3.9.5/lib/python3.9/lib-dynload/_heapq.cpython-39-darwin.so',
   'EXTENSION'),
  ('pygame.sdlmain_osx',
   '/Users/j/.local/share/virtualenvs/sokoban_joanna_2021-mic4QEav/lib/python3.9/site-packages/pygame/sdlmain_osx.cpython-39-darwin.so',
   'EXTENSION'),
  ('pygame.imageext',
   '/Users/j/.local/share/virtualenvs/sokoban_joanna_2021-mic4QEav/lib/python3.9/site-packages/pygame/imageext.cpython-39-darwin.so',
   'EXTENSION'),
  ('pygame.fastevent',
   '/Users/j/.local/share/virtualenvs/sokoban_joanna_2021-mic4QEav/lib/python3.9/site-packages/pygame/fastevent.cpython-39-darwin.so',
   'EXTENSION'),
  ('pygame.scrap',
   '/Users/j/.local/share/virtualenvs/sokoban_joanna_2021-mic4QEav/lib/python3.9/site-packages/pygame/scrap.cpython-39-darwin.so',
   'EXTENSION'),
  ('pygame.mixer',
   '/Users/j/.local/share/virtualenvs/sokoban_joanna_2021-mic4QEav/lib/python3.9/site-packages/pygame/mixer.cpython-39-darwin.so',
   'EXTENSION'),
  ('pygame.mixer_music',
   '/Users/j/.local/share/virtualenvs/sokoban_joanna_2021-mic4QEav/lib/python3.9/site-packages/pygame/mixer_music.cpython-39-darwin.so',
   'EXTENSION'),
  ('pygame.font',
   '/Users/j/.local/share/virtualenvs/sokoban_joanna_2021-mic4QEav/lib/python3.9/site-packages/pygame/font.cpython-39-darwin.so',
   'EXTENSION'),
  ('pygame._freetype',
   '/Users/j/.local/share/virtualenvs/sokoban_joanna_2021-mic4QEav/lib/python3.9/site-packages/pygame/_freetype.cpython-39-darwin.so',
   'EXTENSION'),
  ('pygame.transform',
   '/Users/j/.local/share/virtualenvs/sokoban_joanna_2021-mic4QEav/lib/python3.9/site-packages/pygame/transform.cpython-39-darwin.so',
   'EXTENSION'),
  ('pygame.time',
   '/Users/j/.local/share/virtualenvs/sokoban_joanna_2021-mic4QEav/lib/python3.9/site-packages/pygame/time.cpython-39-darwin.so',
   'EXTENSION'),
  ('pygame.pixelarray',
   '/Users/j/.local/share/virtualenvs/sokoban_joanna_2021-mic4QEav/lib/python3.9/site-packages/pygame/pixelarray.cpython-39-darwin.so',
   'EXTENSION'),
  ('pygame.mask',
   '/Users/j/.local/share/virtualenvs/sokoban_joanna_2021-mic4QEav/lib/python3.9/site-packages/pygame/mask.cpython-39-darwin.so',
   'EXTENSION'),
  ('pygame.surface',
   '/Users/j/.local/share/virtualenvs/sokoban_joanna_2021-mic4QEav/lib/python3.9/site-packages/pygame/surface.cpython-39-darwin.so',
   'EXTENSION'),
  ('pygame.pixelcopy',
   '/Users/j/.local/share/virtualenvs/sokoban_joanna_2021-mic4QEav/lib/python3.9/site-packages/pygame/pixelcopy.cpython-39-darwin.so',
   'EXTENSION'),
  ('pygame.mouse',
   '/Users/j/.local/share/virtualenvs/sokoban_joanna_2021-mic4QEav/lib/python3.9/site-packages/pygame/mouse.cpython-39-darwin.so',
   'EXTENSION'),
  ('pygame.key',
   '/Users/j/.local/share/virtualenvs/sokoban_joanna_2021-mic4QEav/lib/python3.9/site-packages/pygame/key.cpython-39-darwin.so',
   'EXTENSION'),
  ('pygame.joystick',
   '/Users/j/.local/share/virtualenvs/sokoban_joanna_2021-mic4QEav/lib/python3.9/site-packages/pygame/joystick.cpython-39-darwin.so',
   'EXTENSION'),
  ('pygame.image',
   '/Users/j/.local/share/virtualenvs/sokoban_joanna_2021-mic4QEav/lib/python3.9/site-packages/pygame/image.cpython-39-darwin.so',
   'EXTENSION'),
  ('pygame.event',
   '/Users/j/.local/share/virtualenvs/sokoban_joanna_2021-mic4QEav/lib/python3.9/site-packages/pygame/event.cpython-39-darwin.so',
   'EXTENSION'),
  ('pygame.draw',
   '/Users/j/.local/share/virtualenvs/sokoban_joanna_2021-mic4QEav/lib/python3.9/site-packages/pygame/draw.cpython-39-darwin.so',
   'EXTENSION'),
  ('pygame.display',
   '/Users/j/.local/share/virtualenvs/sokoban_joanna_2021-mic4QEav/lib/python3.9/site-packages/pygame/display.cpython-39-darwin.so',
   'EXTENSION'),
  ('pygame.math',
   '/Users/j/.local/share/virtualenvs/sokoban_joanna_2021-mic4QEav/lib/python3.9/site-packages/pygame/math.cpython-39-darwin.so',
   'EXTENSION'),
  ('pygame.bufferproxy',
   '/Users/j/.local/share/virtualenvs/sokoban_joanna_2021-mic4QEav/lib/python3.9/site-packages/pygame/bufferproxy.cpython-39-darwin.so',
   'EXTENSION'),
  ('pygame.color',
   '/Users/j/.local/share/virtualenvs/sokoban_joanna_2021-mic4QEav/lib/python3.9/site-packages/pygame/color.cpython-39-darwin.so',
   'EXTENSION'),
  ('pygame.surflock',
   '/Users/j/.local/share/virtualenvs/sokoban_joanna_2021-mic4QEav/lib/python3.9/site-packages/pygame/surflock.cpython-39-darwin.so',
   'EXTENSION'),
  ('pygame.rwobject',
   '/Users/j/.local/share/virtualenvs/sokoban_joanna_2021-mic4QEav/lib/python3.9/site-packages/pygame/rwobject.cpython-39-darwin.so',
   'EXTENSION'),
  ('pygame.rect',
   '/Users/j/.local/share/virtualenvs/sokoban_joanna_2021-mic4QEav/lib/python3.9/site-packages/pygame/rect.cpython-39-darwin.so',
   'EXTENSION'),
  ('pygame.constants',
   '/Users/j/.local/share/virtualenvs/sokoban_joanna_2021-mic4QEav/lib/python3.9/site-packages/pygame/constants.cpython-39-darwin.so',
   'EXTENSION'),
  ('pygame.base',
   '/Users/j/.local/share/virtualenvs/sokoban_joanna_2021-mic4QEav/lib/python3.9/site-packages/pygame/base.cpython-39-darwin.so',
   'EXTENSION'),
  ('libcrypto.1.1.dylib',
   '/usr/local/opt/openssl@1.1/lib/libcrypto.1.1.dylib',
   'BINARY'),
  ('libssl.1.1.dylib',
   '/usr/local/opt/openssl@1.1/lib/libssl.1.1.dylib',
   'BINARY'),
  ('libreadline.8.dylib',
   '/usr/local/opt/readline/lib/libreadline.8.dylib',
   'BINARY'),
  ('libSDL2-2.0.0.dylib',
   '/Users/j/.local/share/virtualenvs/sokoban_joanna_2021-mic4QEav/lib/python3.9/site-packages/pygame/.dylibs/libSDL2-2.0.0.dylib',
   'BINARY'),
  ('libSDL2_image-2.0.0.dylib',
   '/Users/j/.local/share/virtualenvs/sokoban_joanna_2021-mic4QEav/lib/python3.9/site-packages/pygame/.dylibs/libSDL2_image-2.0.0.dylib',
   'BINARY'),
  ('libjpeg.9.dylib',
   '/Users/j/.local/share/virtualenvs/sokoban_joanna_2021-mic4QEav/lib/python3.9/site-packages/pygame/.dylibs/libjpeg.9.dylib',
   'BINARY'),
  ('libpng16.16.dylib',
   '/Users/j/.local/share/virtualenvs/sokoban_joanna_2021-mic4QEav/lib/python3.9/site-packages/pygame/.dylibs/libpng16.16.dylib',
   'BINARY'),
  ('libSDL2_mixer-2.0.0.dylib',
   '/Users/j/.local/share/virtualenvs/sokoban_joanna_2021-mic4QEav/lib/python3.9/site-packages/pygame/.dylibs/libSDL2_mixer-2.0.0.dylib',
   'BINARY'),
  ('libSDL2_ttf-2.0.0.dylib',
   '/Users/j/.local/share/virtualenvs/sokoban_joanna_2021-mic4QEav/lib/python3.9/site-packages/pygame/.dylibs/libSDL2_ttf-2.0.0.dylib',
   'BINARY'),
  ('libfreetype.6.dylib',
   '/Users/j/.local/share/virtualenvs/sokoban_joanna_2021-mic4QEav/lib/python3.9/site-packages/pygame/.dylibs/libfreetype.6.dylib',
   'BINARY'),
  ('libwebp.7.dylib',
   '/Users/j/.local/share/virtualenvs/sokoban_joanna_2021-mic4QEav/lib/python3.9/site-packages/pygame/.dylibs/libwebp.7.dylib',
   'BINARY'),
  ('libz.1.2.11.dylib',
   '/Users/j/.local/share/virtualenvs/sokoban_joanna_2021-mic4QEav/lib/python3.9/site-packages/pygame/.dylibs/libz.1.2.11.dylib',
   'BINARY'),
  ('libtiff.5.dylib',
   '/Users/j/.local/share/virtualenvs/sokoban_joanna_2021-mic4QEav/lib/python3.9/site-packages/pygame/.dylibs/libtiff.5.dylib',
   'BINARY'),
  ('libvorbis.0.dylib',
   '/Users/j/.local/share/virtualenvs/sokoban_joanna_2021-mic4QEav/lib/python3.9/site-packages/pygame/.dylibs/libvorbis.0.dylib',
   'BINARY'),
  ('libvorbisfile.3.dylib',
   '/Users/j/.local/share/virtualenvs/sokoban_joanna_2021-mic4QEav/lib/python3.9/site-packages/pygame/.dylibs/libvorbisfile.3.dylib',
   'BINARY'),
  ('libogg.0.dylib',
   '/Users/j/.local/share/virtualenvs/sokoban_joanna_2021-mic4QEav/lib/python3.9/site-packages/pygame/.dylibs/libogg.0.dylib',
   'BINARY'),
  ('libFLAC.8.dylib',
   '/Users/j/.local/share/virtualenvs/sokoban_joanna_2021-mic4QEav/lib/python3.9/site-packages/pygame/.dylibs/libFLAC.8.dylib',
   'BINARY'),
  ('libmodplug.1.dylib',
   '/Users/j/.local/share/virtualenvs/sokoban_joanna_2021-mic4QEav/lib/python3.9/site-packages/pygame/.dylibs/libmodplug.1.dylib',
   'BINARY'),
  ('libmpg123.0.dylib',
   '/Users/j/.local/share/virtualenvs/sokoban_joanna_2021-mic4QEav/lib/python3.9/site-packages/pygame/.dylibs/libmpg123.0.dylib',
   'BINARY')],
 [],
 [],
 [('base_library.zip',
   '/Users/j/Desktop/projects/sokoban_1/build/main/base_library.zip',
   'DATA'),
  ('pygame/pygame_icon.tiff',
   '/Users/j/.local/share/virtualenvs/sokoban_joanna_2021-mic4QEav/lib/python3.9/site-packages/pygame/pygame_icon.tiff',
   'DATA'),
  ('pygame/freesansbold.ttf',
   '/Users/j/.local/share/virtualenvs/sokoban_joanna_2021-mic4QEav/lib/python3.9/site-packages/pygame/freesansbold.ttf',
   'DATA')],
 [])
