('/Users/j/Desktop/projects/sokoban_1/build/main/PKG-00.pkg',
 {'BINARY': 1,
  'DATA': 1,
  'EXECUTABLE': 1,
  'EXTENSION': 1,
  'PYMODULE': 1,
  'PYSOURCE': 1,
  'PYZ': 0,
  'SPLASH': 1},
 [('PYZ-00.pyz',
   '/Users/j/Desktop/projects/sokoban_1/build/main/PYZ-00.pyz',
   'PYZ'),
  ('lib-dynload/_struct',
   '/Users/j/.pyenv/versions/3.9.5/lib/python3.9/lib-dynload/_struct.cpython-39-darwin.so',
   'EXTENSION'),
  ('lib-dynload/zlib',
   '/Users/j/.pyenv/versions/3.9.5/lib/python3.9/lib-dynload/zlib.cpython-39-darwin.so',
   'EXTENSION'),
  ('struct',
   '/Users/j/.pyenv/versions/3.9.5/lib/python3.9/struct.pyo',
   'PYMODULE'),
  ('pyimod01_os_path',
   '/Users/j/.local/share/virtualenvs/sokoban_joanna_2021-mic4QEav/lib/python3.9/site-packages/PyInstaller/loader/pyimod01_os_path.pyc',
   'PYMODULE'),
  ('pyimod02_archive',
   '/Users/j/.local/share/virtualenvs/sokoban_joanna_2021-mic4QEav/lib/python3.9/site-packages/PyInstaller/loader/pyimod02_archive.pyc',
   'PYMODULE'),
  ('pyimod03_importers',
   '/Users/j/.local/share/virtualenvs/sokoban_joanna_2021-mic4QEav/lib/python3.9/site-packages/PyInstaller/loader/pyimod03_importers.pyc',
   'PYMODULE'),
  ('pyimod04_ctypes',
   '/Users/j/.local/share/virtualenvs/sokoban_joanna_2021-mic4QEav/lib/python3.9/site-packages/PyInstaller/loader/pyimod04_ctypes.pyc',
   'PYMODULE'),
  ('pyiboot01_bootstrap',
   '/Users/j/.local/share/virtualenvs/sokoban_joanna_2021-mic4QEav/lib/python3.9/site-packages/PyInstaller/loader/pyiboot01_bootstrap.py',
   'PYSOURCE'),
  ('pyi_rth_pkgutil',
   '/Users/j/.local/share/virtualenvs/sokoban_joanna_2021-mic4QEav/lib/python3.9/site-packages/PyInstaller/hooks/rthooks/pyi_rth_pkgutil.py',
   'PYSOURCE'),
  ('pyi_rth_multiprocessing',
   '/Users/j/.local/share/virtualenvs/sokoban_joanna_2021-mic4QEav/lib/python3.9/site-packages/PyInstaller/hooks/rthooks/pyi_rth_multiprocessing.py',
   'PYSOURCE'),
  ('pyi_rth_inspect',
   '/Users/j/.local/share/virtualenvs/sokoban_joanna_2021-mic4QEav/lib/python3.9/site-packages/PyInstaller/hooks/rthooks/pyi_rth_inspect.py',
   'PYSOURCE'),
  ('pyi_rth_pkgres',
   '/Users/j/.local/share/virtualenvs/sokoban_joanna_2021-mic4QEav/lib/python3.9/site-packages/PyInstaller/hooks/rthooks/pyi_rth_pkgres.py',
   'PYSOURCE'),
  ('main', '/Users/j/Desktop/projects/sokoban_1/main.py', 'PYSOURCE'),
  ('libpython3.9.dylib',
   '/Users/j/.pyenv/versions/3.9.5/lib/libpython3.9.dylib',
   'BINARY'),
  ('lib-dynload/_datetime',
   '/Users/j/.pyenv/versions/3.9.5/lib/python3.9/lib-dynload/_datetime.cpython-39-darwin.so',
   'EXTENSION'),
  ('lib-dynload/resource',
   '/Users/j/.pyenv/versions/3.9.5/lib/python3.9/lib-dynload/resource.cpython-39-darwin.so',
   'EXTENSION'),
  ('lib-dynload/grp',
   '/Users/j/.pyenv/versions/3.9.5/lib/python3.9/lib-dynload/grp.cpython-39-darwin.so',
   'EXTENSION'),
  ('lib-dynload/_lzma',
   '/Users/j/.pyenv/versions/3.9.5/lib/python3.9/lib-dynload/_lzma.cpython-39-darwin.so',
   'EXTENSION'),
  ('lib-dynload/_bz2',
   '/Users/j/.pyenv/versions/3.9.5/lib/python3.9/lib-dynload/_bz2.cpython-39-darwin.so',
   'EXTENSION'),
  ('lib-dynload/math',
   '/Users/j/.pyenv/versions/3.9.5/lib/python3.9/lib-dynload/math.cpython-39-darwin.so',
   'EXTENSION'),
  ('lib-dynload/array',
   '/Users/j/.pyenv/versions/3.9.5/lib/python3.9/lib-dynload/array.cpython-39-darwin.so',
   'EXTENSION'),
  ('lib-dynload/_socket',
   '/Users/j/.pyenv/versions/3.9.5/lib/python3.9/lib-dynload/_socket.cpython-39-darwin.so',
   'EXTENSION'),
  ('lib-dynload/select',
   '/Users/j/.pyenv/versions/3.9.5/lib/python3.9/lib-dynload/select.cpython-39-darwin.so',
   'EXTENSION'),
  ('lib-dynload/binascii',
   '/Users/j/.pyenv/versions/3.9.5/lib/python3.9/lib-dynload/binascii.cpython-39-darwin.so',
   'EXTENSION'),
  ('lib-dynload/_statistics',
   '/Users/j/.pyenv/versions/3.9.5/lib/python3.9/lib-dynload/_statistics.cpython-39-darwin.so',
   'EXTENSION'),
  ('lib-dynload/_contextvars',
   '/Users/j/.pyenv/versions/3.9.5/lib/python3.9/lib-dynload/_contextvars.cpython-39-darwin.so',
   'EXTENSION'),
  ('lib-dynload/_decimal',
   '/Users/j/.pyenv/versions/3.9.5/lib/python3.9/lib-dynload/_decimal.cpython-39-darwin.so',
   'EXTENSION'),
  ('lib-dynload/_ssl',
   '/Users/j/.pyenv/versions/3.9.5/lib/python3.9/lib-dynload/_ssl.cpython-39-darwin.so',
   'EXTENSION'),
  ('lib-dynload/_asyncio',
   '/Users/j/.pyenv/versions/3.9.5/lib/python3.9/lib-dynload/_asyncio.cpython-39-darwin.so',
   'EXTENSION'),
  ('lib-dynload/_queue',
   '/Users/j/.pyenv/versions/3.9.5/lib/python3.9/lib-dynload/_queue.cpython-39-darwin.so',
   'EXTENSION'),
  ('lib-dynload/mmap',
   '/Users/j/.pyenv/versions/3.9.5/lib/python3.9/lib-dynload/mmap.cpython-39-darwin.so',
   'EXTENSION'),
  ('lib-dynload/_posixshmem',
   '/Users/j/.pyenv/versions/3.9.5/lib/python3.9/lib-dynload/_posixshmem.cpython-39-darwin.so',
   'EXTENSION'),
  ('lib-dynload/_posixsubprocess',
   '/Users/j/.pyenv/versions/3.9.5/lib/python3.9/lib-dynload/_posixsubprocess.cpython-39-darwin.so',
   'EXTENSION'),
  ('lib-dynload/_ctypes',
   '/Users/j/.pyenv/versions/3.9.5/lib/python3.9/lib-dynload/_ctypes.cpython-39-darwin.so',
   'EXTENSION'),
  ('lib-dynload/_multiprocessing',
   '/Users/j/.pyenv/versions/3.9.5/lib/python3.9/lib-dynload/_multiprocessing.cpython-39-darwin.so',
   'EXTENSION'),
  ('lib-dynload/pyexpat',
   '/Users/j/.pyenv/versions/3.9.5/lib/python3.9/lib-dynload/pyexpat.cpython-39-darwin.so',
   'EXTENSION'),
  ('lib-dynload/_scproxy',
   '/Users/j/.pyenv/versions/3.9.5/lib/python3.9/lib-dynload/_scproxy.cpython-39-darwin.so',
   'EXTENSION'),
  ('lib-dynload/termios',
   '/Users/j/.pyenv/versions/3.9.5/lib/python3.9/lib-dynload/termios.cpython-39-darwin.so',
   'EXTENSION'),
  ('lib-dynload/_pickle',
   '/Users/j/.pyenv/versions/3.9.5/lib/python3.9/lib-dynload/_pickle.cpython-39-darwin.so',
   'EXTENSION'),
  ('lib-dynload/_hashlib',
   '/Users/j/.pyenv/versions/3.9.5/lib/python3.9/lib-dynload/_hashlib.cpython-39-darwin.so',
   'EXTENSION'),
  ('lib-dynload/_sha3',
   '/Users/j/.pyenv/versions/3.9.5/lib/python3.9/lib-dynload/_sha3.cpython-39-darwin.so',
   'EXTENSION'),
  ('lib-dynload/_blake2',
   '/Users/j/.pyenv/versions/3.9.5/lib/python3.9/lib-dynload/_blake2.cpython-39-darwin.so',
   'EXTENSION'),
  ('lib-dynload/_sha256',
   '/Users/j/.pyenv/versions/3.9.5/lib/python3.9/lib-dynload/_sha256.cpython-39-darwin.so',
   'EXTENSION'),
  ('lib-dynload/_md5',
   '/Users/j/.pyenv/versions/3.9.5/lib/python3.9/lib-dynload/_md5.cpython-39-darwin.so',
   'EXTENSION'),
  ('lib-dynload/_sha1',
   '/Users/j/.pyenv/versions/3.9.5/lib/python3.9/lib-dynload/_sha1.cpython-39-darwin.so',
   'EXTENSION'),
  ('lib-dynload/_sha512',
   '/Users/j/.pyenv/versions/3.9.5/lib/python3.9/lib-dynload/_sha512.cpython-39-darwin.so',
   'EXTENSION'),
  ('lib-dynload/_random',
   '/Users/j/.pyenv/versions/3.9.5/lib/python3.9/lib-dynload/_random.cpython-39-darwin.so',
   'EXTENSION'),
  ('lib-dynload/_bisect',
   '/Users/j/.pyenv/versions/3.9.5/lib/python3.9/lib-dynload/_bisect.cpython-39-darwin.so',
   'EXTENSION'),
  ('lib-dynload/unicodedata',
   '/Users/j/.pyenv/versions/3.9.5/lib/python3.9/lib-dynload/unicodedata.cpython-39-darwin.so',
   'EXTENSION'),
  ('lib-dynload/_csv',
   '/Users/j/.pyenv/versions/3.9.5/lib/python3.9/lib-dynload/_csv.cpython-39-darwin.so',
   'EXTENSION'),
  ('lib-dynload/readline',
   '/Users/j/.pyenv/versions/3.9.5/lib/python3.9/lib-dynload/readline.cpython-39-darwin.so',
   'EXTENSION'),
  ('lib-dynload/_opcode',
   '/Users/j/.pyenv/versions/3.9.5/lib/python3.9/lib-dynload/_opcode.cpython-39-darwin.so',
   'EXTENSION'),
  ('lib-dynload/_uuid',
   '/Users/j/.pyenv/versions/3.9.5/lib/python3.9/lib-dynload/_uuid.cpython-39-darwin.so',
   'EXTENSION'),
  ('lib-dynload/_multibytecodec',
   '/Users/j/.pyenv/versions/3.9.5/lib/python3.9/lib-dynload/_multibytecodec.cpython-39-darwin.so',
   'EXTENSION'),
  ('lib-dynload/_codecs_jp',
   '/Users/j/.pyenv/versions/3.9.5/lib/python3.9/lib-dynload/_codecs_jp.cpython-39-darwin.so',
   'EXTENSION'),
  ('lib-dynload/_codecs_iso2022',
   '/Users/j/.pyenv/versions/3.9.5/lib/python3.9/lib-dynload/_codecs_iso2022.cpython-39-darwin.so',
   'EXTENSION'),
  ('lib-dynload/_codecs_tw',
   '/Users/j/.pyenv/versions/3.9.5/lib/python3.9/lib-dynload/_codecs_tw.cpython-39-darwin.so',
   'EXTENSION'),
  ('lib-dynload/_codecs_cn',
   '/Users/j/.pyenv/versions/3.9.5/lib/python3.9/lib-dynload/_codecs_cn.cpython-39-darwin.so',
   'EXTENSION'),
  ('lib-dynload/_codecs_kr',
   '/Users/j/.pyenv/versions/3.9.5/lib/python3.9/lib-dynload/_codecs_kr.cpython-39-darwin.so',
   'EXTENSION'),
  ('lib-dynload/_codecs_hk',
   '/Users/j/.pyenv/versions/3.9.5/lib/python3.9/lib-dynload/_codecs_hk.cpython-39-darwin.so',
   'EXTENSION'),
  ('lib-dynload/_heapq',
   '/Users/j/.pyenv/versions/3.9.5/lib/python3.9/lib-dynload/_heapq.cpython-39-darwin.so',
   'EXTENSION'),
  ('pygame.sdlmain_osx',
   '/Users/j/.local/share/virtualenvs/sokoban_joanna_2021-mic4QEav/lib/python3.9/site-packages/pygame/sdlmain_osx.cpython-39-darwin.so',
   'EXTENSION'),
  ('pygame.imageext',
   '/Users/j/.local/share/virtualenvs/sokoban_joanna_2021-mic4QEav/lib/python3.9/site-packages/pygame/imageext.cpython-39-darwin.so',
   'EXTENSION'),
  ('pygame.fastevent',
   '/Users/j/.local/share/virtualenvs/sokoban_joanna_2021-mic4QEav/lib/python3.9/site-packages/pygame/fastevent.cpython-39-darwin.so',
   'EXTENSION'),
  ('pygame.scrap',
   '/Users/j/.local/share/virtualenvs/sokoban_joanna_2021-mic4QEav/lib/python3.9/site-packages/pygame/scrap.cpython-39-darwin.so',
   'EXTENSION'),
  ('pygame.mixer',
   '/Users/j/.local/share/virtualenvs/sokoban_joanna_2021-mic4QEav/lib/python3.9/site-packages/pygame/mixer.cpython-39-darwin.so',
   'EXTENSION'),
  ('pygame.mixer_music',
   '/Users/j/.local/share/virtualenvs/sokoban_joanna_2021-mic4QEav/lib/python3.9/site-packages/pygame/mixer_music.cpython-39-darwin.so',
   'EXTENSION'),
  ('pygame.font',
   '/Users/j/.local/share/virtualenvs/sokoban_joanna_2021-mic4QEav/lib/python3.9/site-packages/pygame/font.cpython-39-darwin.so',
   'EXTENSION'),
  ('pygame._freetype',
   '/Users/j/.local/share/virtualenvs/sokoban_joanna_2021-mic4QEav/lib/python3.9/site-packages/pygame/_freetype.cpython-39-darwin.so',
   'EXTENSION'),
  ('pygame.transform',
   '/Users/j/.local/share/virtualenvs/sokoban_joanna_2021-mic4QEav/lib/python3.9/site-packages/pygame/transform.cpython-39-darwin.so',
   'EXTENSION'),
  ('pygame.time',
   '/Users/j/.local/share/virtualenvs/sokoban_joanna_2021-mic4QEav/lib/python3.9/site-packages/pygame/time.cpython-39-darwin.so',
   'EXTENSION'),
  ('pygame.pixelarray',
   '/Users/j/.local/share/virtualenvs/sokoban_joanna_2021-mic4QEav/lib/python3.9/site-packages/pygame/pixelarray.cpython-39-darwin.so',
   'EXTENSION'),
  ('pygame.mask',
   '/Users/j/.local/share/virtualenvs/sokoban_joanna_2021-mic4QEav/lib/python3.9/site-packages/pygame/mask.cpython-39-darwin.so',
   'EXTENSION'),
  ('pygame.surface',
   '/Users/j/.local/share/virtualenvs/sokoban_joanna_2021-mic4QEav/lib/python3.9/site-packages/pygame/surface.cpython-39-darwin.so',
   'EXTENSION'),
  ('pygame.pixelcopy',
   '/Users/j/.local/share/virtualenvs/sokoban_joanna_2021-mic4QEav/lib/python3.9/site-packages/pygame/pixelcopy.cpython-39-darwin.so',
   'EXTENSION'),
  ('pygame.mouse',
   '/Users/j/.local/share/virtualenvs/sokoban_joanna_2021-mic4QEav/lib/python3.9/site-packages/pygame/mouse.cpython-39-darwin.so',
   'EXTENSION'),
  ('pygame.key',
   '/Users/j/.local/share/virtualenvs/sokoban_joanna_2021-mic4QEav/lib/python3.9/site-packages/pygame/key.cpython-39-darwin.so',
   'EXTENSION'),
  ('pygame.joystick',
   '/Users/j/.local/share/virtualenvs/sokoban_joanna_2021-mic4QEav/lib/python3.9/site-packages/pygame/joystick.cpython-39-darwin.so',
   'EXTENSION'),
  ('pygame.image',
   '/Users/j/.local/share/virtualenvs/sokoban_joanna_2021-mic4QEav/lib/python3.9/site-packages/pygame/image.cpython-39-darwin.so',
   'EXTENSION'),
  ('pygame.event',
   '/Users/j/.local/share/virtualenvs/sokoban_joanna_2021-mic4QEav/lib/python3.9/site-packages/pygame/event.cpython-39-darwin.so',
   'EXTENSION'),
  ('pygame.draw',
   '/Users/j/.local/share/virtualenvs/sokoban_joanna_2021-mic4QEav/lib/python3.9/site-packages/pygame/draw.cpython-39-darwin.so',
   'EXTENSION'),
  ('pygame.display',
   '/Users/j/.local/share/virtualenvs/sokoban_joanna_2021-mic4QEav/lib/python3.9/site-packages/pygame/display.cpython-39-darwin.so',
   'EXTENSION'),
  ('pygame.math',
   '/Users/j/.local/share/virtualenvs/sokoban_joanna_2021-mic4QEav/lib/python3.9/site-packages/pygame/math.cpython-39-darwin.so',
   'EXTENSION'),
  ('pygame.bufferproxy',
   '/Users/j/.local/share/virtualenvs/sokoban_joanna_2021-mic4QEav/lib/python3.9/site-packages/pygame/bufferproxy.cpython-39-darwin.so',
   'EXTENSION'),
  ('pygame.color',
   '/Users/j/.local/share/virtualenvs/sokoban_joanna_2021-mic4QEav/lib/python3.9/site-packages/pygame/color.cpython-39-darwin.so',
   'EXTENSION'),
  ('pygame.surflock',
   '/Users/j/.local/share/virtualenvs/sokoban_joanna_2021-mic4QEav/lib/python3.9/site-packages/pygame/surflock.cpython-39-darwin.so',
   'EXTENSION'),
  ('pygame.rwobject',
   '/Users/j/.local/share/virtualenvs/sokoban_joanna_2021-mic4QEav/lib/python3.9/site-packages/pygame/rwobject.cpython-39-darwin.so',
   'EXTENSION'),
  ('pygame.rect',
   '/Users/j/.local/share/virtualenvs/sokoban_joanna_2021-mic4QEav/lib/python3.9/site-packages/pygame/rect.cpython-39-darwin.so',
   'EXTENSION'),
  ('pygame.constants',
   '/Users/j/.local/share/virtualenvs/sokoban_joanna_2021-mic4QEav/lib/python3.9/site-packages/pygame/constants.cpython-39-darwin.so',
   'EXTENSION'),
  ('pygame.base',
   '/Users/j/.local/share/virtualenvs/sokoban_joanna_2021-mic4QEav/lib/python3.9/site-packages/pygame/base.cpython-39-darwin.so',
   'EXTENSION'),
  ('libcrypto.1.1.dylib',
   '/usr/local/opt/openssl@1.1/lib/libcrypto.1.1.dylib',
   'BINARY'),
  ('libssl.1.1.dylib',
   '/usr/local/opt/openssl@1.1/lib/libssl.1.1.dylib',
   'BINARY'),
  ('libreadline.8.dylib',
   '/usr/local/opt/readline/lib/libreadline.8.dylib',
   'BINARY'),
  ('libSDL2-2.0.0.dylib',
   '/Users/j/.local/share/virtualenvs/sokoban_joanna_2021-mic4QEav/lib/python3.9/site-packages/pygame/.dylibs/libSDL2-2.0.0.dylib',
   'BINARY'),
  ('libSDL2_image-2.0.0.dylib',
   '/Users/j/.local/share/virtualenvs/sokoban_joanna_2021-mic4QEav/lib/python3.9/site-packages/pygame/.dylibs/libSDL2_image-2.0.0.dylib',
   'BINARY'),
  ('libjpeg.9.dylib',
   '/Users/j/.local/share/virtualenvs/sokoban_joanna_2021-mic4QEav/lib/python3.9/site-packages/pygame/.dylibs/libjpeg.9.dylib',
   'BINARY'),
  ('libpng16.16.dylib',
   '/Users/j/.local/share/virtualenvs/sokoban_joanna_2021-mic4QEav/lib/python3.9/site-packages/pygame/.dylibs/libpng16.16.dylib',
   'BINARY'),
  ('libSDL2_mixer-2.0.0.dylib',
   '/Users/j/.local/share/virtualenvs/sokoban_joanna_2021-mic4QEav/lib/python3.9/site-packages/pygame/.dylibs/libSDL2_mixer-2.0.0.dylib',
   'BINARY'),
  ('libSDL2_ttf-2.0.0.dylib',
   '/Users/j/.local/share/virtualenvs/sokoban_joanna_2021-mic4QEav/lib/python3.9/site-packages/pygame/.dylibs/libSDL2_ttf-2.0.0.dylib',
   'BINARY'),
  ('libfreetype.6.dylib',
   '/Users/j/.local/share/virtualenvs/sokoban_joanna_2021-mic4QEav/lib/python3.9/site-packages/pygame/.dylibs/libfreetype.6.dylib',
   'BINARY'),
  ('libwebp.7.dylib',
   '/Users/j/.local/share/virtualenvs/sokoban_joanna_2021-mic4QEav/lib/python3.9/site-packages/pygame/.dylibs/libwebp.7.dylib',
   'BINARY'),
  ('libz.1.2.11.dylib',
   '/Users/j/.local/share/virtualenvs/sokoban_joanna_2021-mic4QEav/lib/python3.9/site-packages/pygame/.dylibs/libz.1.2.11.dylib',
   'BINARY'),
  ('libtiff.5.dylib',
   '/Users/j/.local/share/virtualenvs/sokoban_joanna_2021-mic4QEav/lib/python3.9/site-packages/pygame/.dylibs/libtiff.5.dylib',
   'BINARY'),
  ('libvorbis.0.dylib',
   '/Users/j/.local/share/virtualenvs/sokoban_joanna_2021-mic4QEav/lib/python3.9/site-packages/pygame/.dylibs/libvorbis.0.dylib',
   'BINARY'),
  ('libvorbisfile.3.dylib',
   '/Users/j/.local/share/virtualenvs/sokoban_joanna_2021-mic4QEav/lib/python3.9/site-packages/pygame/.dylibs/libvorbisfile.3.dylib',
   'BINARY'),
  ('libogg.0.dylib',
   '/Users/j/.local/share/virtualenvs/sokoban_joanna_2021-mic4QEav/lib/python3.9/site-packages/pygame/.dylibs/libogg.0.dylib',
   'BINARY'),
  ('libFLAC.8.dylib',
   '/Users/j/.local/share/virtualenvs/sokoban_joanna_2021-mic4QEav/lib/python3.9/site-packages/pygame/.dylibs/libFLAC.8.dylib',
   'BINARY'),
  ('libmodplug.1.dylib',
   '/Users/j/.local/share/virtualenvs/sokoban_joanna_2021-mic4QEav/lib/python3.9/site-packages/pygame/.dylibs/libmodplug.1.dylib',
   'BINARY'),
  ('libmpg123.0.dylib',
   '/Users/j/.local/share/virtualenvs/sokoban_joanna_2021-mic4QEav/lib/python3.9/site-packages/pygame/.dylibs/libmpg123.0.dylib',
   'BINARY'),
  ('base_library.zip',
   '/Users/j/Desktop/projects/sokoban_1/build/main/base_library.zip',
   'DATA'),
  ('pygame/pygame_icon.tiff',
   '/Users/j/.local/share/virtualenvs/sokoban_joanna_2021-mic4QEav/lib/python3.9/site-packages/pygame/pygame_icon.tiff',
   'DATA'),
  ('pygame/freesansbold.ttf',
   '/Users/j/.local/share/virtualenvs/sokoban_joanna_2021-mic4QEav/lib/python3.9/site-packages/pygame/freesansbold.ttf',
   'DATA')],
 False,
 False,
 False,
 [],
 'x86_64',
 None,
 None)
